15 Quality control – Principles of Spatial (Transcript)omics Analysis with Bioconductor
…
15.2.2 Xenium

We now read load Xenium data:

Code
# retrieve Xenium dataset from OSF repo
tbl <- osfr::osf_ls_files(osf, "Xenium_HumanBreast_Janesick")
tbl <- tbl[!grepl("transcripts", tbl$name), ] # skip molecules
dir.create(dir <- tempfile())
osfr::osf_download(tbl, dir, verbose=FALSE)

##  # A tibble: 7 × 4
##    name                       id                  local_path      meta        
##    <chr>                      <chr>               <chr>           <list>      
##  1 experiment.xenium          678a7a565dfb6ab449… /var/folders/6… <named list>
##  2 cell_feature_matrix.h5     678a7a5052e389525e… /var/folders/6… <named list>
##  3 cells.csv.gz               678bfdb633a5115609… /var/folders/6… <named list>
##  4 cell_boundaries.parquet    678a7a5176d10541b7… /var/folders/6… <named list>
##  5 cells.parquet              678a7a54db28fce7ef… /var/folders/6… <named list>
##  6 nucleus_boundaries.parquet 678a7a582848e14142… /var/folders/6… <named list>
##  # ℹ 1 more row
…
